"longUrlValue12343543523475485587657865723493693569785675675673567657567",
"longUrlValue222222222222222222222222222222222222222222222222222245634645643534",
"longUrlValuelskdfjasdfiaefsafdaswesafasdfsf",
"longUrlValuesadfeisedfsadfqiwqq233saodf93.com",
"lksdisadlfsakdfj_lsdfijesdfasdfasdfasdfasdf.net",
"super-awesome-webpage-url-aslkdfjasdfui03w2ur24902i4rqisadf",
"/preceeding-slash-super-awesome-webpage-url-aslkdfjasdfui03w2ur24902i4rqisadf",
"endingslash---345435345345345345/"